{
    "test_plans": [
        {
            "select_from_tag": {
                "XTP-9052": "XTP-9052",
                "default": "XTP-9052"
            }
        }
    ],
    "name": {
        "env": "CI_COMMIT_BRANCH",
        "maps_to": {
            "main": "Test Equipment main branch Test Execution",
            "default": "Test Equipment branch Test Execution"
        }
    },
    "chart_info": {
        "env": "DEPLOYMENT_CONFIGURATION",
        "maps_to": {
            "ska-ser-test-equipment": "charts/ska-ser-test-equipment/Chart.yaml",
            "default": "charts/ska-ser-test-equipment/Chart.yaml"
        }
    },
    "test_report": "build/reports/report.json",
    "project_id": "XTP",
    "test_environments": [
        {
            "env": "TEST_ENV",
            "maps_to": {
                "dev": "dev-testing",
                "PSI-LOW": "PSI-LOW",
                "PSI-MID-MDA": "PSI-MID-MDA",
                "PSI-LOW-TOPIC": "PSI-LOW-TOPIC",
                "ITF-LOW": "ITF-LOW",
                "ITF-MID": "ITF-MID",
                "default": "STFC-CI"
            }
        }
    ],
    "labels": [
        {
            "env": "CI_COMMIT_BRANCH",
            "maps_to": {
                "default": "branch",
                "main": "main"
            }
        },
        {
            "env": "REALHW_OR_SIMULATED",
            "maps_to": {
                "default": "Simulated-HW",
                "real": "Real-HW"
            }
        }
    ],
    "description": "Test execution results as generated from https://gitlab.com/ska-telescope/ska-ser-test-equipment\n",
    "versions": [
         {
            "env": "CI_COMMIT_BRANCH",
            "maps_to": {
                "default": "",
                "main": "PI15"
            }
        }
    ],
    "environmental_variables": [
        "CI_JOB_URL",
        "CI_COMMIT_TITLE",
        "CI_JOB_STARTED_AT"
    ]
}
